{
    "2nde": {
        "calculs_numeriques": {
            "fractions": {},
            "pourcentages": {},
            "puissances": {},
            "racines_carrees": {}
        },
        "calcul_litteral": {
            "developper": {},
            "equations": {},
            "inequations": {},
            "systemes": {}
        }
    }
}