\BOOKMARK [1][-]{section.1}{\376\377\000L\000'\000e\000n\000s\000e\000m\000b\000l\000e\000\040\000R}{}% 1
\BOOKMARK [1][-]{section.2}{\376\377\000L\000'\000e\000n\000s\000e\000m\000b\000l\000e\000\040\000N}{}% 2
\BOOKMARK [1][-]{section.3}{\376\377\000L\000'\000e\000n\000s\000e\000m\000b\000l\000e\000\040\000Z}{}% 3
\BOOKMARK [1][-]{section.4}{\376\377\000N\000o\000m\000b\000r\000e\000s\000\040\000d\000\351\000c\000i\000m\000a\000u\000x\000\040\000D}{}% 4
\BOOKMARK [1][-]{section.5}{\376\377\000N\000o\000m\000b\000r\000e\000s\000\040\000r\000a\000t\000i\000o\000n\000n\000e\000l\000s\000\040\000Q}{}% 5
\BOOKMARK [1][-]{section.6}{\376\377\000S\000y\000n\000t\000h\000\350\000s\000e\000\040\000:}{}% 6
\BOOKMARK [1][-]{section.7}{\376\377\000T\000r\000a\000v\000a\000i\000l\000l\000e\000r\000\040\000s\000e\000u\000l}{}% 7
